Export and get significant clusters for RSA
…
df.sensors <- bind_rows(
  read_csv(paste0("./gam/data/rsa_sensors_tr_step", py$step, ".csv")) %>% mutate(metric = "RS", .before = 1),
  read_csv(paste0("./gam/data/rsa_sensors_tr_corr_step", py$step, ".csv")) %>% mutate(metric = "RS CORR", .before = 1),
) %>% 
  mutate(across(c(subject), as.factor)) %>% 
  mutate(across(c(time, value), as.numeric))

df.sensors %>% mutate(NA.values = is.na(value)) %>% count(metric, time, NA.values)

# A tibble: 164 × 4
   metric  time NA.values     n
   <chr>  <dbl> <lgl>     <int>
 1 RS         0 FALSE        15
 2 RS         1 FALSE        15
 3 RS         2 FALSE        15
 4 RS         3 FALSE        15
 5 RS         4 FALSE        15
 6 RS         5 FALSE        15
 7 RS         6 FALSE        15
 8 RS         7 FALSE        15
 9 RS         8 FALSE        15
10 RS         9 FALSE        15
# ℹ 154 more rows
…
Load data

df.source <- bind_rows(
  read_csv(paste0("./gam/data/rsa_source_tr_step", py$step, ".csv")) %>% mutate(metric = "RS", .before = 1),
  read_csv(paste0("./gam/data/rsa_source_tr_corr_step", py$step, ".csv")) %>% mutate(metric = "RS CORR", .before = 1)
) %>% 
  mutate(across(c(network, subject), as.factor)) %>% 
  mutate(across(c(time, value), as.numeric))

df.source %>% mutate(NA.values = is.na(value)) %>% count(network, metric, time, NA.values)

# A tibble: 1,640 × 5
   network           metric  time NA.values     n
   <fct>             <chr>  <dbl> <lgl>     <int>
 1 Central Executive RS         0 FALSE        15
 2 Central Executive RS         1 FALSE        15
 3 Central Executive RS         2 FALSE        15
 4 Central Executive RS         3 FALSE        15
 5 Central Executive RS         4 FALSE        15
 6 Central Executive RS         5 FALSE        15
 7 Central Executive RS         6 FALSE        15
 8 Central Executive RS         7 FALSE        15
 9 Central Executive RS         8 FALSE        15
10 Central Executive RS         9 FALSE        15
# ℹ 1,630 more rows
…
